{
	"menu": ["blue-sphere.png","cloud.png","cloud-and-rain.png","cloud-to-drop.gif","cool-graph.jpg","crystal-cage-ice.png"],
	"frame-1": ["old-man-girl-comix.png", "girls-question.png"],
	"frame-2": ["water-cycle.jpg", "thermometer.png"],
	"frame-3": ["hexagon-eng.png", "hexagon-kaz.png", "hexagon-rus.png", "hexagon-active.png", "hexagon-error.png"]
}