[{
	"rus": "кипение", 
	"eng": "boiling",
	"kaz": "қайнау"
},
{
	"rus": "замерзание",
	"eng": "freezing",
	"kaz": "қату"
},
{
	"rus": "испарение",
	"eng": "evaporation",
	"kaz": "булану"
},
{
	"rus": "конденсация",
	"eng": "condensation",
	"kaz": "конденсация"
},
{
	"rus": "охлаждение",
	"eng": "cooling",
	"kaz": "салқындау"
},
{
	"rus": "теплота",
	"eng": "heat",
	"kaz": "жылу"
},
{
	"rus": "температура",
	"eng": "temperature",
	"kaz": "температура"
}]
